Text as Data: Problem Set 01
…
Take a small a sample of your documents and read them carefully. This sample doesn’t need to be random. Select cases that are more interesting, and close to your theoretical interest in this dataset. What are you thoughts about these documents? What did you learn after reading them?

Code

terms <- c("inflation","economy","jobs","crime","abortion","immigration",
           "border","climate","guns","healthcare","tax","education")

df %>%
  dplyr::filter(!is.na(text)) %>%
  dplyr::filter(stringr::str_detect(stringr::str_to_lower(text),
                                    stringr::str_c(terms, collapse = "|"))) %>%
  dplyr::slice_sample(n = 30) %>%
  dplyr::select(party_clean, created_at, username, text)

# A tibble: 30 × 4
   party_clean created_at username            text                              
   <chr>       <date>     <chr>               <chr>                             
 1 Republican  2022-10-07 mikeleeforutah      "We need a compassionate solution…
 2 Democratic  2022-10-25 kp4nc               "@EdLaborGOP Meanwhile you call t…
 3 Republican  2022-10-19 singletary4congress "This morning, I was in studio wi…
 4 Republican  2022-11-05 LucieVolotzky       "Vote NO on Prop 1! If passed, it…
 5 Democratic  2022-10-26 snyderforin03       "I will help them out. @RepJimBan…
 6 Republican  2022-10-26 michellesteelca     "We didn’t expect this kind of mo…
 7 Republican  2022-10-11 guyciarrocchi       "I’ll take “things you can’t make…
 8 Democratic  2022-10-12 axne4congress       "Incredible night at Revelton Dis…
 9 Democratic  2022-10-30 drqhathaway         "#An #EarlyVoting Message\" \r\nF…
10 Republican  2022-10-21 alexisjohnsonnm     "When @KamalaHarris said the bord…
# ℹ 20 more rows
…
